Output.vcd
$date
    Mar 17, 2023  15:48:42
$end
$version
    TOOL:	xmsim(64)	20.03-s007
$end
$timescale
    1 ns
$end

$scope module top $end
$var reg       1 !    clock $end
$var reg       1 "    reset $end

$scope module apb_intf $end
$var wire      1 #    clock  $end
$var wire      1 $    reset  $end
$var reg      32 %    PADDR [31:0] $end
$var reg      32 &    PWDATA [31:0] $end
$var reg       1 '    PENABLE $end
$var reg       1 (    PWRITE $end
$var reg       8 )    PSEL [7:0] $end
$var reg      32 *    PRDATA[7] [31:0] $end
$var reg      32 +    PRDATA[6] [31:0] $end
$var reg      32 ,    PRDATA[5] [31:0] $end
$var reg      32 -    PRDATA[4] [31:0] $end
$var reg      32 .    PRDATA[3] [31:0] $end
$var reg      32 /    PRDATA[2] [31:0] $end
$var reg      32 0    PRDATA[1] [31:0] $end
$var reg      32 1    PRDATA[0] [31:0] $end
$var reg       8 2    PREADY [7:0] $end
$var reg       8 3    PSLVERR [7:0] $end

$scope clocking apb_drv_cb $end
$var reg       8 4    PREADY [7:0] $end
$var reg       8 5    PSLVERR [7:0] $end
$var reg      32 6    PADDR [31:0] $end
$var reg      32 7    PWDATA [31:0] $end
$var reg       1 8    PENABLE $end
$var reg       1 9    PWRITE $end
$var reg       8 :    PSEL [7:0] $end
$upscope $end


$scope clocking apb_mon_cb $end
$var reg       8 ;    PREADY [7:0] $end
$var reg       8 <    PSLVERR [7:0] $end
$var reg      32 =    PADDR [31:0] $end
$var reg      32 >    PWDATA [31:0] $end
$var reg       1 ?    PENABLE $end
$var reg       1 @    PWRITE $end
$var reg       8 A    PSEL [7:0] $end
$upscope $end

$upscope $end


$scope module ahb_intf $end
$var wire      1 B    clock  $end
$var wire      1 C    reset  $end
$var reg       1 D    HCLK $end
$var reg       1 E    HRESETn $end
$var reg      32 F    HADDR [31:0] $end
$var reg       2 G    HTRANS [1:0] $end
$var reg       1 H    HWRITE $end
$var reg       3 I    HSIZE [2:0] $end
$var reg       3 J    HBURST [2:0] $end
$var reg       4 K    HPROT [3:0] $end
$var reg      32 L    HWDATA [31:0] $end
$var reg       1 M    HSEL $end
$var reg      32 N    HRDATA [31:0] $end
$var reg       1 O    HREADY $end
$var reg       2 P    HRESP [1:0] $end

$scope clocking ahb_drv_cb $end
$var reg      32 Q    HRDATA [31:0] $end
$var reg       1 R    HREADY $end
$var reg       2 S    HRESP [1:0] $end
$var reg      32 T    HADDR [31:0] $end
$var reg       2 U    HTRANS [1:0] $end
$var reg       1 V    HWRITE $end
$var reg       3 W    HSIZE [2:0] $end
$var reg       3 X    HBURST [2:0] $end
$var reg       4 Y    HPROT [3:0] $end
$var reg      32 Z    HWDATA [31:0] $end
$var reg       1 [    HSEL $end
$upscope $end


$scope clocking ahb_mon_cb $end
$var reg      32 \    HADDR [31:0] $end
$var reg       2 ]    HTRANS [1:0] $end
$var reg       1 ^    HWRITE $end
$var reg       3 _    HSIZE [2:0] $end
$var reg       3 `    HBURST [2:0] $end
$var reg       4 a    HPROT [3:0] $end
$var reg      32 b    HWDATA [31:0] $end
$var reg       1 c    HSEL $end
$var reg      32 d    HRDATA [31:0] $end
$var reg       1 e    HREADY $end
$var reg       2 f    HRESP [1:0] $end
$upscope $end

$upscope $end


$scope module DUT $end
$var parameter 32 g    NO_OF_SLAVES $end
$var parameter 32 h    SLAVE_START_ADDR_0 $end
$var parameter 32 i    SLAVE_END_ADDR_0 $end
$var parameter 32 j    SLAVE_START_ADDR_1 $end
$var parameter 32 k    SLAVE_END_ADDR_1 $end
$var parameter 32 l    SLAVE_START_ADDR_2 $end
$var parameter 32 m    SLAVE_END_ADDR_2 $end
$var parameter 32 n    SLAVE_START_ADDR_3 $end
$var parameter 32 o    SLAVE_END_ADDR_3 $end
$var parameter 32 p    SLAVE_START_ADDR_4 $end
$var parameter 32 q    SLAVE_END_ADDR_4 $end
$var parameter 32 r    SLAVE_START_ADDR_5 $end
$var parameter 32 s    SLAVE_END_ADDR_5 $end
$var parameter 32 t    SLAVE_START_ADDR_6 $end
$var parameter 32 u    SLAVE_END_ADDR_6 $end
$var parameter 32 v    SLAVE_START_ADDR_7 $end
$var parameter 32 w    SLAVE_END_ADDR_7 $end
$var wire      1 x    HCLK  $end
$var wire      1 y    HRESETn  $end
$var wire     32 z    HADDR [31:0] $end
$var wire      2 {    HTRANS [1:0] $end
$var wire      1 |    HWRITE  $end
$var wire      3 }    HSIZE [2:0] $end
$var wire      3 ~    HBURST [2:0] $end
$var wire      4 !!   HPROT [3:0] $end
$var wire     32 "!   HWDATA [31:0] $end
$var wire      1 #!   HSEL  $end
$var reg      32 $!   HRDATA [31:0] $end
$var reg       1 %!   HREADY $end
$var reg       2 &!   HRESP [1:0] $end
$var reg      32 '!   PADDR [31:0] $end
$var reg      32 (!   PWDATA [31:0] $end
$var reg       1 )!   PENABLE $end
$var reg       1 *!   PWRITE $end
$var reg       8 +!   PSEL [7:0] $end
$var reg      32 ,!   PRDATA[7] [31:0] $end
$var reg      32 -!   PRDATA[6] [31:0] $end
$var reg      32 .!   PRDATA[5] [31:0] $end
$var reg      32 /!   PRDATA[4] [31:0] $end
$var reg      32 0!   PRDATA[3] [31:0] $end
$var reg      32 1!   PRDATA[2] [31:0] $end
$var reg      32 2!   PRDATA[1] [31:0] $end
$var reg      32 3!   PRDATA[0] [31:0] $end
$var wire      8 4!   PREADY [7:0] $end
$var wire      8 5!   PSLVERR [7:0] $end
$var reg      32 6!   fsm_state [31:0] $end
$var reg      32 7!   ahb_addr [31:0] $end
$var reg      32 8!   ahb_wdata [31:0] $end
$var reg       1 9!   ahb_write $end
$var reg       8 :!   slave_select [7:0] $end
$var reg       1 ;!   addr_error $end
$var reg       1 <!   apb_ready $end
$var reg       1 =!   apb_error $end
$upscope $end

$upscope $end

$enddefinitions $end
$dumpvars
b11111111111 w
b11100000000 v
b11011111111 u
b11000000000 t
b10111111111 s
b10100000000 r
b10011111111 q
b10000000000 p
b1111111111 o
b1100000000 n
b1011111111 m
b1000000000 l
b111111111 k
b100000000 j
b11111111 i
b0 h
b1000 g
0!
0"
0#
0$
bx %
bx &
x'
x(
bx )
bx *
bx +
bx ,
bx -
bx .
bx /
bx 0
bx 1
bx 2
bx 3
bx 4
bx 5
bx 6
bx 7
x8
x9
bx :
bx ;
bx <
bx =
bx >
x?
x@
bx A
0B
0C
xD
xE
bx F
bx G
xH
bx I
bx J
bx K
bx L
xM
bx N
xO
bx P
bx Q
xR
bx S
bx T
bx U
xV
bx W
bx X
bx Y
bx Z
x[
bx \
bx ]
x^
bx _
bx `
bx a
bx b
xc
bx d
xe
bx f
0x
0y
bx z
bx {
x|
bx }
bx ~
bx !!
bx "!
x#!
bx $!
x%!
bx &!
bx '!
bx (!
x)!
x*!
bx +!
bx ,!
bx -!
bx .!
bx /!
bx 0!
bx 1!
bx 2!
bx 3!
bx 4!
bx 5!
b0 6!
bx 7!
bx 8!
x9!
b0 :!
1;!
x<!
x=!
$end
#1
1!
1x
1B
1#
b0 $!
b0 N
0)!
0*!
b0 '!
b0 +!
0%!
b0 &!
0<!
0=!
b0 P
0O
b0 )
b0 %
0(
0'
#2
0!
0x
0B
0#
b0 F
b0 T
b0 G
b0 U
0H
0V
b0 I
b0 W
b0 J
b0 X
b0 K
b0 Y
b0 L
b0 Z
0M
0[
b0 1
b0 0
b0 /
b0 .
b0 -
b0 ,
b0 +
b0 *
b0 2
b0 4
b0 3
b0 5
b0 3!
b0 2!
b0 1!
b0 0!
b0 /!
b0 .!
b0 -!
b0 ,!
b0 5!
b0 4!
0#!
b0 "!
b0 !!
b0 ~
b0 }
0|
b0 {
b0 z
#3
1!
1x
1B
1#
b0 \
b0 ]
0^
b0 _
b0 `
b0 a
b0 b
0c
b0 d
0e
b0 f
b0 Q
0R
b0 S
b0 ;
b0 <
b0 =
0?
0@
b0 A
b0 6
08
09
b0 :
#4
0!
0x
0B
0#
#5
1"
1!
1x
1B
1#
1y
1C
1$
#6
0!
0x
0B
0#
b11111111 2
b11111111 4
b11111111 4!
#7
1!
1x
1B
1#
b11111111 ;
#8
0!
0x
0B
0#
b1000010110 F
b1000010110 T
b10 G
b10 U
b10 I
b10 W
b100 J
b100 X
b101 K
b101 Y
1M
1[
1#!
b101 !!
b100 ~
b10 }
b10 {
b1000010110 z
#9
1!
1x
1B
1#
b1000010110 \
b10 ]
b10 _
b100 `
b101 a
1c
1%!
b1000010110 7!
09!
b0 8!
b1 6!
0;!
b100 :!
1O
#10
0!
0x
0B
0#
#11
1!
1x
1B
1#
1e
1R
b1000010110 '!
b0 (!
b100 +!
b10 6!
0%!
1<!
0O
b100 )
b0 &
b1000010110 %
#12
0!
0x
0B
0#
#13
1!
1x
1B
1#
0e
0R
b1000010110 =
b0 >
b100 A
b1000010110 6
b0 7
b100 :
1)!
1%!
b1 6!
1O
1'
#14
0!
0x
0B
0#
b11111001110101010010000010011100 1
b1010100100011110001010100101 0
b11001111010011011101011000101010 /
b1010101000010010100111000011101 .
b1111010111111001101101000000010 -
b1111110101011000111100001110001 ,
b1011101010110000001100011110101 +
b10111011100100010000011111000110 *
b11111001110101010010000010011100 3!
b1010100100011110001010100101 2!
b11001111010011011101011000101010 1!
b1010101000010010100111000011101 0!
b1111010111111001101101000000010 /!
b1111110101011000111100001110001 .!
b1011101010110000001100011110101 -!
b10111011100100010000011111000110 ,!
#15
1!
1x
1B
1#
1e
1R
1?
18
0)!
b10 6!
0%!
0O
0'
#16
0!
0x
0B
0#
b10110110000110001000011101110001 1
b10000010000001101111011110011010 0
b10000101010001000010001111101101 /
b1110000111010111101011001110001 .
b110100111110101111100001101010 -
b1101011100000010001111100011001 ,
b11111011110100110100101110100010 +
b11110000001000100000000000100001 *
b10110110000110001000011101110001 3!
b10000010000001101111011110011010 2!
b10000101010001000010001111101101 1!
b1110000111010111101011001110001 0!
b110100111110101111100001101010 /!
b1101011100000010001111100011001 .!
b11111011110100110100101110100010 -!
b11110000001000100000000000100001 ,!
#17
1!
1x
1B
1#
0e
0R
0?
08
b10000101010001000010001111101101 $!
1)!
1%!
b1 6!
1O
1'
b10000101010001000010001111101101 N
#18
0!
0x
0B
0#
b11111100001 F
b11111100001 T
b1 I
b1 W
b10 J
b10 X
b1001 K
b1001 Y
b10010000100001100100111101001100 1
b1001100110100011010010001100100 0
b1111000100011000011000100111100 /
b110110010001100111111110101101 .
b10011010010100101001011000010000 -
b1111011011000011000101110100011 ,
b1001000100101100100011011100110 +
b1001001001000011010001110010100 *
b10010000100001100100111101001100 3!
b1001100110100011010010001100100 2!
b1111000100011000011000100111100 1!
b110110010001100111111110101101 0!
b10011010010100101001011000010000 /!
b1111011011000011000101110100011 .!
b1001000100101100100011011100110 -!
b1001001001000011010001110010100 ,!
b1001 !!
b10 ~
b1 }
b11111100001 z
#19
1!
1x
1B
1#
b0 $!
b11111100001 \
b1 _
b10 `
b1001 a
b10000101010001000010001111101101 d
1e
b10000101010001000010001111101101 Q
1R
1?
18
b0 N
0)!
b10 6!
0%!
0O
0'
#20
0!
0x
0B
0#
b100101011101000010110011000011 1
b11100100000111010100101001110 0
b11100010100000000100110001011 /
b110001110011010101101001101001 .
b10101001110000001100010110010011 -
b10101000110110101111010011011010 ,
b1100110101101011110100110111100 +
b11111111101111010011110000101 *
b100101011101000010110011000011 3!
b11100100000111010100101001110 2!
b11100010100000000100110001011 1!
b110001110011010101101001101001 0!
b10101001110000001100010110010011 /!
b10101000110110101111010011011010 .!
b1100110101101011110100110111100 -!
b11111111101111010011110000101 ,!
#21
1!
1x
1B
1#
b0 d
0e
b0 Q
0R
0?
08
1)!
1%!
b1 6!
b11111100001 7!
b0 :!
b10000000 :!
1O
1'
#22
0!
0x
0B
0#
b11011000001001101110011101011100 1
b1110000110010110001110000100110 0
b10011111111010100111011000001110 /
b10000000110100000001100000101011 .
b1100101111101010110111011100010 -
b10101010011110011110010101110110 ,
b1001010100111101011101011010 +
b1001110111111011110011000100010 *
b11011000001001101110011101011100 3!
b1110000110010110001110000100110 2!
b10011111111010100111011000001110 1!
b10000000110100000001100000101011 0!
b1100101111101010110111011100010 /!
b10101010011110011110010101110110 .!
b1001010100111101011101011010 -!
b1001110111111011110011000100010 ,!
#23
1!
1x
1B
1#
1e
1R
1?
18
b11111100001 '!
b10000000 +!
0)!
b10 6!
0%!
0O
0'
b10000000 )
b11111100001 %
#24
0!
0x
0B
0#
b11000100111001010011010011111111 1
b10110001101010010011111010000010 0
b11001001101100001000101011001100 /
b10110100011010000111100001101110 .
b10100100111000101010011010000101 -
b110100001100100111101010011011 ,
b1100001001101111110100101111100 +
b100100100101001011111000111100 *
b11000100111001010011010011111111 3!
b10110001101010010011111010000010 2!
b11001001101100001000101011001100 1!
b10110100011010000111100001101110 0!
b10100100111000101010011010000101 /!
b110100001100100111101010011011 .!
b1100001001101111110100101111100 -!
b100100100101001011111000111100 ,!
#25
1!
1x
1B
1#
0e
0R
b11111100001 =
0?
b10000000 A
b11111100001 6
08
b10000000 :
b100100100101001011111000111100 $!
1)!
1%!
b1 6!
1O
1'
b100100100101001011111000111100 N
#26
0!
0x
0B
0#
b10111000000111011001011011001110 1
b11011001110101011101110001101010 0
b100110000011010001100100000001 /
b11001000111011100011001010011111 .
b11110010000001000001100010101101 -
b10001111001000101000000101111001 ,
b1111101000100101000011011011110 +
b10100100001100000101001011001011 *
b10111000000111011001011011001110 3!
b11011001110101011101110001101010 2!
b100110000011010001100100000001 1!
b11001000111011100011001010011111 0!
b11110010000001000001100010101101 /!
b10001111001000101000000101111001 .!
b1111101000100101000011011011110 -!
b10100100001100000101001011001011 ,!
#27
1!
1x
1B
1#
b0 $!
b100100100101001011111000111100 d
1e
b100100100101001011111000111100 Q
1R
1?
18
b0 N
0)!
b10 6!
0%!
0O
0'
#28
0!
0x
0B
0#
b1001110111 F
b1001110111 T
b0 I
b0 W
b111 J
b111 X
b1011 K
b1011 Y
b11110011010110110111100010001111 1
b11111010110101001000101100001110 0
b11101101110010011101100101101101 /
b10110100110010001011101100000011 .
b1100010000001000010011011101000 -
b10100011100010101010000011100000 ,
b10010111000011110000011100111011 +
b10010010010011101010001000010010 *
b11110011010110110111100010001111 3!
b11111010110101001000101100001110 2!
b11101101110010011101100101101101 1!
b10110100110010001011101100000011 0!
b1100010000001000010011011101000 /!
b10100011100010101010000011100000 .!
b10010111000011110000011100111011 -!
b10010010010011101010001000010010 ,!
b1011 !!
b111 ~
b0 }
b1001110111 z
#29
1!
1x
1B
1#
b1001110111 \
b0 _
b111 `
b1011 a
b0 d
0e
b0 Q
0R
0?
08
1)!
1%!
b1 6!
b1001110111 7!
b0 :!
b100 :!
1O
1'
#30
0!
0x
0B
0#
b10110011011011010010100011101111 1
b110110110111101101101000001 0
b1110000001110001111100010000000 /
b10001001100000111101011010010101 .
b110110111001001000000001001100 -
b1001010110011011101110010101 ,
b10011111111000110001100101011011 +
b11111100110111111110011010110101 *
b10110011011011010010100011101111 3!
b110110110111101101101000001 2!
b1110000001110001111100010000000 1!
b10001001100000111101011010010101 0!
b110110111001001000000001001100 /!
b1001010110011011101110010101 .!
b10011111111000110001100101011011 -!
b11111100110111111110011010110101 ,!
#31
1!
1x
1B
1#
1e
1R
1?
18
b1001110111 '!
b100 +!
0)!
b10 6!
0%!
0O
0'
b100 )
b1001110111 %
#32
0!
0x
0B
0#
b11110100111111000111111001010100 1
b1101101101111000001011111100010 0
b1001011001011011010110110010010 /
b1111001011110001001000001001001 .
b10001111101010011000110101101101 -
b1010010001100110000000010111001 ,
b1011010011101011001001011100110 +
b1010101110101001011011100110110 *
b11110100111111000111111001010100 3!
b1101101101111000001011111100010 2!
b1001011001011011010110110010010 1!
b1111001011110001001000001001001 0!
b10001111101010011000110101101101 /!
b1010010001100110000000010111001 .!
b1011010011101011001001011100110 -!
b1010101110101001011011100110110 ,!
#33
1!
1x
1B
1#
0e
0R
b1001110111 =
0?
b100 A
b1001110111 6
08
b100 :
b1001011001011011010110110010010 $!
1)!
1%!
b1 6!
1O
1'
b1001011001011011010110110010010 N
#34
0!
0x
0B
0#
b10110110100111000010000011110110 1
b101001011101000111010001110110 0
b11111010100000001010110110001000 /
b1101001010100011100100001011000 .
b11101110011100000000001010010100 -
b110010100001001010111110011111 ,
b10010011100010010010110100100101 +
b10110011101110001110001010011110 *
b10110110100111000010000011110110 3!
b101001011101000111010001110110 2!
b11111010100000001010110110001000 1!
b1101001010100011100100001011000 0!
b11101110011100000000001010010100 /!
b110010100001001010111110011111 .!
b10010011100010010010110100100101 -!
b10110011101110001110001010011110 ,!
#35
1!
1x
1B
1#
b0 $!
b1001011001011011010110110010010 d
1e
b1001011001011011010110110010010 Q
1R
1?
18
b0 N
0)!
b10 6!
0%!
0O
0'
#36
0!
0x
0B
0#
b101111001100001000000001110101 1
b10001110111010010010001101 0
b10011001000010101001100010010100 /
b1100111001110110100010001101011 .
b1111100010111110100101111100100 -
b11110011010001000110110011010001 ,
b10111111001010110111010011011110 +
b1110011000110000001101101011010 *
b101111001100001000000001110101 3!
b10001110111010010010001101 2!
b10011001000010101001100010010100 1!
b1100111001110110100010001101011 0!
b1111100010111110100101111100100 /!
b11110011010001000110110011010001 .!
b10111111001010110111010011011110 -!
b1110011000110000001101101011010 ,!
#37
1!
1x
1B
1#
b0 d
0e
b0 Q
0R
0?
08
1)!
1%!
b1 6!
1O
1'
#38
0!
0x
0B
0#
b11001001001 F
b11001001001 T
b1 I
b1 W
b0 J
b0 X
b0 K
b0 Y
b10010101100010100111000000111100 1
b11000110101011001011000010111101 0
b11101101111101111111100111111000 /
b11110111110011001101110111010100 .
b10001000010011110101000001111011 -
b1111011100001110010011000101100 ,
b1010111001110101001111011101101 +
b10011001100110110001101110001000 *
b10010101100010100111000000111100 3!
b11000110101011001011000010111101 2!
b11101101111101111111100111111000 1!
b11110111110011001101110111010100 0!
b10001000010011110101000001111011 /!
b1111011100001110010011000101100 .!
b1010111001110101001111011101101 -!
b10011001100110110001101110001000 ,!
b0 !!
b0 ~
b1 }
b11001001001 z
#39
1!
1x
1B
1#
b11001001001 \
b1 _
b0 `
b0 a
1e
1R
1?
18
0)!
b10 6!
0%!
0O
0'
#40
0!
0x
0B
0#
b101111100001110100001101000001 1
b11100110111010111000001001001111 0
b11111010001011010000111111111110 /
b10110011000010100010100100110001 .
b11011111000010010011101010110001 -
b1101111110111101110110001001001 ,
b10111001000000110000011001001101 +
b1000100001100100001000000110101 *
b101111100001110100001101000001 3!
b11100110111010111000001001001111 2!
b11111010001011010000111111111110 1!
b10110011000010100010100100110001 0!
b11011111000010010011101010110001 /!
b1101111110111101110110001001001 .!
b10111001000000110000011001001101 -!
b1000100001100100001000000110101 ,!
#41
1!
1x
1B
1#
0e
0R
0?
08
b11111010001011010000111111111110 $!
1)!
1%!
b1 6!
b11001001001 7!
b0 :!
b1000000 :!
1O
1'
b11111010001011010000111111111110 N
#42
0!
0x
0B
0#
b11010011001111000000010100001111 1
b11001101011011110000101011100001 0
b1011110010000101100110000011 /
b10101000100000101011100100011000 .
b10011010001111101000110100001110 -
b1011111110000011101011110101100 ,
b1010110001110111101001110110100 +
b1100111001101001100001101010011 *
b11010011001111000000010100001111 3!
b11001101011011110000101011100001 2!
b1011110010000101100110000011 1!
b10101000100000101011100100011000 0!
b10011010001111101000110100001110 /!
b1011111110000011101011110101100 .!
b1010110001110111101001110110100 -!
b1100111001101001100001101010011 ,!
#43
1!
1x
1B
1#
b0 $!
b11111010001011010000111111111110 d
1e
b11111010001011010000111111111110 Q
1R
1?
18
b0 N
b11001001001 '!
b1000000 +!
0)!
b10 6!
0%!
0O
0'
b1000000 )
b11001001001 %
#44
0!
0x
0B
0#
b11110000010111000001101100100101 1
b111111010100100010000110100110 0
b111001111111101101010111000100 /
b11000001010010001110101110110101 .
b11111100101111001100110010001101 -
b10100000111010110000100001010101 ,
b1010010101001101011000111110000 +
b1000001001110110010111001100111 *
b11110000010111000001101100100101 3!
b111111010100100010000110100110 2!
b111001111111101101010111000100 1!
b11000001010010001110101110110101 0!
b11111100101111001100110010001101 /!
b10100000111010110000100001010101 .!
b1010010101001101011000111110000 -!
b1000001001110110010111001100111 ,!
#45
1!
1x
1B
1#
b0 d
0e
b0 Q
0R
b11001001001 =
0?
b1000000 A
b11001001001 6
08
b1000000 :
1)!
1%!
b1 6!
1O
1'
#46
0!
0x
0B
0#
b1000001100101000010111100001011 1
b1011011010110010010101111111000 0
b11000100011110001111101001100000 /
b11011111101111100000100101111001 .
b11101001101110110111001001000101 -
b10010010011110110000111011000111 ,
b11100011000001010111110110101101 +
b11110110110010101101101000101111 *
b1000001100101000010111100001011 3!
b1011011010110010010101111111000 2!
b11000100011110001111101001100000 1!
b11011111101111100000100101111001 0!
b11101001101110110111001001000101 /!
b10010010011110110000111011000111 .!
b11100011000001010111110110101101 -!
b11110110110010101101101000101111 ,!
#47
1!
1x
1B
1#
1e
1R
1?
18
0)!
b10 6!
0%!
0O
0'
#48
0!
0x
0B
0#
b11100100 F
b11100100 T
1H
1V
b0 I
b0 W
b11 J
b11 X
b1110 K
b1110 Y
b10100101010110100010001001111011 L
b10100101010110100010001001111011 Z
b11110000111111011011111010111000 1
b101010001000100110101101101011 0
b10110000100100001010001010100110 /
b11110000111000110101100100111001 .
b11110100101110101010011110011111 -
b111001100010001001010110010110 ,
b10111100010101111001001001010001 +
b111001001001111011000111000101 *
b11110000111111011011111010111000 3!
b101010001000100110101101101011 2!
b10110000100100001010001010100110 1!
b11110000111000110101100100111001 0!
b11110100101110101010011110011111 /!
b111001100010001001010110010110 .!
b10111100010101111001001001010001 -!
b111001001001111011000111000101 ,!
b10100101010110100010001001111011 "!
b1110 !!
b11 ~
b0 }
1|
b11100100 z
#49
1!
1x
1B
1#
b11100100 \
1^
b0 _
b11 `
b1110 a
b10100101010110100010001001111011 b
0e
0R
0?
08
b10111100010101111001001001010001 $!
1)!
1%!
b1 6!
b11100100 7!
19!
b10100101010110100010001001111011 8!
b0 :!
b1 :!
1O
1'
b10111100010101111001001001010001 N
#50
0!
0x
0B
0#
b1111101110000110001011000011000 1
b1100100001110100101011110011110 0
b1111000100000111010001010101100 /
b10011111111000011011010001100011 .
b11110101001110001000100110011110 -
b10101111001011111001011111111 ,
b10011000010110111011000100010010 +
b10011001000110101011100111111101 *
b1111101110000110001011000011000 3!
b1100100001110100101011110011110 2!
b1111000100000111010001010101100 1!
b10011111111000011011010001100011 0!
b11110101001110001000100110011110 /!
b10101111001011111001011111111 .!
b10011000010110111011000100010010 -!
b10011001000110101011100111111101 ,!
#51
1!
1x
1B
1#
b0 $!
b10111100010101111001001001010001 d
1e
b10111100010101111001001001010001 Q
1R
1?
18
b0 N
b11100100 '!
1*!
b10100101010110100010001001111011 (!
b1 +!
0)!
b10 6!
0%!
0O
0'
b1 )
b10100101010110100010001001111011 &
1(
b11100100 %
#52
0!
0x
0B
0#
b10001001010 F
b10001001010 T
0H
0V
b10 I
b10 W
b1 J
b1 X
b1101 K
b1101 Y
b0 L
b0 Z
b1000110110010111100000111011100 1
b11000010001011011011111001101000 0
b1000111101010010011011111001110 /
b1100011110101010001010000101001 .
b10011011000111010101000011101000 -
b110110010011010110001001000010 ,
b101011110010001000001001111000 +
b1110110111011110111000000000110 *
b1000110110010111100000111011100 3!
b11000010001011011011111001101000 2!
b1000111101010010011011111001110 1!
b1100011110101010001010000101001 0!
b10011011000111010101000011101000 /!
b110110010011010110001001000010 .!
b101011110010001000001001111000 -!
b1110110111011110111000000000110 ,!
b0 "!
b1101 !!
b1 ~
b10 }
0|
b10001001010 z
#53
1!
1x
1B
1#
b10001001010 \
0^
b10 _
b1 `
b1101 a
b0 b
b0 d
0e
b0 Q
0R
b11100100 =
b10100101010110100010001001111011 >
0?
1@
b1 A
b11100100 6
b10100101010110100010001001111011 7
08
19
b1 :
1)!
1%!
b1 6!
b10001001010 7!
09!
b0 8!
b0 :!
b10000 :!
1O
1'
#54
0!
0x
0B
0#
#55
1!
1x
1B
1#
1e
1R
1?
18
b10001001010 '!
0*!
b0 (!
b10000 +!
0)!
b10 6!
0%!
0O
0'
b10000 )
b0 &
0(
b10001001010 %
#56
0!
0x
0B
0#
#57
1!
1x
1B
1#
0e
0R
b10001001010 =
b0 >
0?
0@
b10000 A
b10001001010 6
b0 7
08
09
b10000 :
b10011011000111010101000011101000 $!
1)!
1%!
b1 6!
1O
1'
b10011011000111010101000011101000 N
#58
0!
0x
0B
0#
#59
1!
1x
1B
1#
b0 $!
b10011011000111010101000011101000 d
1e
b10011011000111010101000011101000 Q
1R
1?
18
b0 N
0)!
b10 6!
0%!
0O
0'
#60
0!
0x
0B
0#
#61
1!
1x
1B
1#
b0 d
0e
b0 Q
0R
0?
08
1)!
1%!
b1 6!
1O
1'
#62
0!
0x
0B
0#
b11011011110 F
b11011011110 T
1H
1V
b1 I
b1 W
b110 J
b110 X
b1111 K
b1111 Y
b101101010011011001101001100011 L
b101101010011011001101001100011 Z
b101101010011011001101001100011 "!
b1111 !!
b110 ~
b1 }
1|
b11011011110 z
#63
1!
1x
1B
1#
b11011011110 \
1^
b1 _
b110 `
b1111 a
b101101010011011001101001100011 b
1e
1R
1?
18
0)!
b10 6!
0%!
0O
0'
#64
0!
0x
0B
0#
#65
1!
1x
1B
1#
0e
0R
0?
08
b10011011000111010101000011101000 $!
1)!
1%!
b1 6!
b11011011110 7!
19!
b101101010011011001101001100011 8!
b0 :!
b1000000 :!
1O
1'
b10011011000111010101000011101000 N
#66
0!
0x
0B
0#
b11101010000 F
b11101010000 T
0H
0V
b0 I
b0 W
b101 J
b101 X
b110 K
b110 Y
b0 L
b0 Z
b0 "!
b110 !!
b101 ~
b0 }
0|
b11101010000 z
#67
1!
1x
1B
1#
b0 $!
b11101010000 \
0^
b0 _
b101 `
b110 a
b0 b
b10011011000111010101000011101000 d
1e
b10011011000111010101000011101000 Q
1R
1?
18
b0 N
b11011011110 '!
1*!
b101101010011011001101001100011 (!
b1000000 +!
0)!
b10 6!
0%!
0O
0'
b1000000 )
b101101010011011001101001100011 &
1(
b11011011110 %
#68
0!
0x
0B
0#
#69
1!
1x
1B
1#
b0 d
0e
b0 Q
0R
b11011011110 =
b101101010011011001101001100011 >
0?
1@
b1000000 A
b11011011110 6
b101101010011011001101001100011 7
08
19
b1000000 :
1)!
1%!
b1 6!
b11101010000 7!
09!
b0 8!
b0 :!
b10000000 :!
1O
1'
#70
0!
0x
0B
0#
#71
1!
1x
1B
1#
1e
1R
1?
18
b11101010000 '!
0*!
b0 (!
b10000000 +!
0)!
b10 6!
0%!
0O
0'
b10000000 )
b0 &
0(
b11101010000 %
#72
0!
0x
0B
0#
#73
1!
1x
1B
1#
0e
0R
b11101010000 =
b0 >
0?
0@
b10000000 A
b11101010000 6
b0 7
08
09
b10000000 :
b1110110111011110111000000000110 $!
1)!
1%!
b1 6!
1O
1'
b1110110111011110111000000000110 N
#74
0!
0x
0B
0#
#75
1!
1x
1B
1#
b0 $!
b1110110111011110111000000000110 d
1e
b1110110111011110111000000000110 Q
1R
1?
18
b0 N
0)!
b10 6!
0%!
0O
0'
#76
0!
0x
0B
0#
b1000010111 F
b1000010111 T
1H
1V
b10 I
b10 W
b0 J
b0 X
b1000 K
b1000 Y
b11011101000011110001100000100101 L
b11011101000011110001100000100101 Z
b11011101000011110001100000100101 "!
b1000 !!
b0 ~
b10 }
1|
b1000010111 z
#77
1!
1x
1B
1#
b1000010111 \
1^
b10 _
b0 `
b1000 a
b11011101000011110001100000100101 b
b0 d
0e
b0 Q
0R
0?
08
1)!
1%!
b1 6!
b1000010111 7!
19!
b11011101000011110001100000100101 8!
b0 :!
b100 :!
1O
1'
#78
0!
0x
0B
0#
#79
1!
1x
1B
1#
1e
1R
1?
18
b1000010111 '!
1*!
b11011101000011110001100000100101 (!
b100 +!
0)!
b10 6!
0%!
0O
0'
b100 )
b11011101000011110001100000100101 &
1(
b1000010111 %
#80
0!
0x
0B
0#
b110001001 F
b110001001 T
b1 I
b1 W
b110 J
b110 X
b1010 K
b1010 Y
b1111010001001000100111001111110 L
b1111010001001000100111001111110 Z
b1111010001001000100111001111110 "!
b1010 !!
b110 ~
b1 }
b110001001 z
#81
1!
1x
1B
1#
b110001001 \
b1 _
b110 `
b1010 a
b1111010001001000100111001111110 b
0e
0R
b1000010111 =
b11011101000011110001100000100101 >
0?
1@
b100 A
b1000010111 6
b11011101000011110001100000100101 7
08
19
b100 :
1)!
1%!
b1 6!
b110001001 7!
b1111010001001000100111001111110 8!
b0 :!
b10 :!
1O
1'
#82
0!
0x
0B
0#
#83
1!
1x
1B
1#
1e
1R
1?
18
b110001001 '!
b1111010001001000100111001111110 (!
b10 +!
0)!
b10 6!
0%!
0O
0'
b10 )
b1111010001001000100111001111110 &
b110001001 %
#84
0!
0x
0B
0#
b1110110011 F
b1110110011 T
0H
0V
b0 I
b0 W
b11 J
b11 X
b1 K
b1 Y
b0 L
b0 Z
b0 "!
b1 !!
b11 ~
b0 }
0|
b1110110011 z
#85
1!
1x
1B
1#
b1110110011 \
0^
b0 _
b11 `
b1 a
b0 b
0e
0R
b110001001 =
b1111010001001000100111001111110 >
0?
b10 A
b110001001 6
b1111010001001000100111001111110 7
08
b10 :
1)!
1%!
b1 6!
b1110110011 7!
09!
b0 8!
b0 :!
b1000 :!
1O
1'
#86
0!
0x
0B
0#
#87
1!
1x
1B
1#
1e
1R
1?
18
b1110110011 '!
0*!
b0 (!
b1000 +!
0)!
b10 6!
0%!
0O
0'
b1000 )
b0 &
0(
b1110110011 %
#88
0!
0x
0B
0#
